score theorique: 11900
9602  [('11', '21', 300), ('25', '15', 300), ('14', '35', 1000), ('62', '52', 1000), ('24', '23', 300), ('32', '42', 300), ('01', '20', 300), ('55', '45', 300), ('04', '05', 300), ('54', '65', 300), ('53', '22', 50), ('44', '64', 50), ('51', '34', 1000), ('61', '41', 1000), ('31', '40', 1000), ('63', '43', 50), ('13', '12', 1), ('03', '10', 1000), ('02', '33', 1000), ('30', '50', 1), ('60', '00', 50)]
9651  [('11', '21', 300), ('25', '15', 300), ('14', '35', 1000), ('62', '52', 1000), ('24', '23', 300), ('32', '42', 300), ('01', '20', 300), ('55', '45', 300), ('04', '05', 300), ('54', '65', 300), ('53', '22', 50), ('44', '64', 50), ('51', '34', 1000), ('61', '41', 1000), ('31', '40', 1000), ('63', '43', 50), ('60', '12', 1), ('33', '30', 50), ('02', '13', 50), ('03', '10', 1000), ('00', '50', 1000)]
9901  [('11', '21', 300), ('25', '15', 300), ('14', '35', 1000), ('62', '52', 1000), ('24', '23', 300), ('32', '42', 300), ('01', '20', 300), ('55', '45', 300), ('04', '05', 300), ('54', '65', 300), ('53', '22', 50), ('12', '43', 50), ('44', '63', 50), ('51', '34', 1000), ('13', '64', 300), ('61', '41', 1000), ('31', '40', 1000), ('03', '10', 1000), ('02', '33', 1000), ('30', '50', 1), ('60', '00', 50)]
10851 [('11', '21', 300), ('25', '15', 300), ('14', '35', 1000), ('62', '52', 1000), ('24', '23', 300), ('32', '42', 300), ('01', '20', 300), ('55', '45', 300), ('04', '05', 300), ('54', '65', 300), ('53', '22', 50), ('44', '43', 50), ('51', '34', 1000), ('13', '64', 300), ('61', '41', 1000), ('31', '40', 1000), ('60', '12', 1), ('03', '10', 1000), ('02', '33', 1000), ('63', '30', 50), ('00', '50', 1000)]
10900 [('11', '21', 300), ('25', '15', 300), ('14', '35', 1000), ('62', '52', 1000), ('24', '23', 300), ('32', '42', 300), ('01', '20', 300), ('55', '45', 300), ('04', '05', 300), ('54', '65', 300), ('44', '53', 50), ('51', '34', 1000), ('13', '64', 300), ('61', '41', 1000), ('31', '40', 1000), ('60', '22', 50), ('12', '43', 50), ('03', '10', 1000), ('02', '33', 1000), ('63', '30', 50), ('00', '50', 1000)]
11101 [('11', '21', 300), ('25', '15', 300), ('14', '35', 1000), ('62', '52', 1000), ('24', '23', 300), ('32', '42', 300), ('01', '20', 300), ('13', '45', 300), ('55', '12', 300), ('04', '05', 300), ('03', '10', 1000), ('02', '33', 1000), ('54', '65', 300), ('53', '22', 50), ('44', '43', 50), ('51', '34', 1000), ('61', '41', 1000), ('31', '40', 1000), ('30', '64', 300), ('60', '63', 1), ('00', '50', 1000)]
11150 [('11', '21', 300), ('25', '15', 300), ('14', '35', 1000), ('62', '52', 1000), ('24', '23', 300), ('32', '42', 300), ('01', '20', 300), ('13', '45', 300), ('55', '12', 300), ('04', '05', 300), ('03', '10', 1000), ('02', '33', 1000), ('54', '65', 300), ('44', '53', 50), ('51', '34', 1000), ('61', '41', 1000), ('31', '40', 1000), ('30', '64', 300), ('63', '43', 50), ('00', '50', 1000), ('60', '22', 50)]
11400 [('11', '21', 300), ('25', '15', 300), ('14', '35', 1000), ('62', '52', 1000), ('24', '23', 300), ('32', '42', 300), ('01', '20', 300), ('13', '45', 300), ('12', '04', 300), ('03', '10', 1000), ('02', '33', 1000), ('44', '43', 50), ('55', '41', 1000), ('31', '40', 1000), ('51', '34', 1000), ('30', '05', 300), ('00', '50', 1000), ('60', '53', 300), ('63', '22', 50), ('61', '64', 300), ('54', '65', 300)]
